\boolfalse {citerequest}\boolfalse {citetracker}\boolfalse {pagetracker}\boolfalse {backtracker}\relax 
\defcounter {refsection}{0}\relax 
\select@language {russian}
\defcounter {refsection}{0}\relax 
\contentsline {section}{\IeC {\CYRV }\IeC {\CYRV }\IeC {\CYRE }\IeC {\CYRD }\IeC {\CYRE }\IeC {\CYRN }\IeC {\CYRI }\IeC {\CYRE }}{5}
\defcounter {refsection}{0}\relax 
\contentsline {section}{\numberline {1.\relax }\IeC {\CYRI }\IeC {\cyrz }\IeC {\cyru }\IeC {\cyrch }\IeC {\cyre }\IeC {\cyrn }\IeC {\cyri }\IeC {\cyre } \IeC {\cyrs }\IeC {\cyrt }\IeC {\cyrr }\IeC {\cyru }\IeC {\cyrk }\IeC {\cyrt }\IeC {\cyru }\IeC {\cyrr }\IeC {\cyrery } \IeC {\cyrd }\IeC {\cyra }\IeC {\cyrn }\IeC {\cyrn }\IeC {\cyrery }\IeC {\cyrh } \IeC {\cyrk }\IeC {\cyrl }\IeC {\cyri }\IeC {\cyrm }\IeC {\cyra }\IeC {\cyrt }\IeC {\cyri }\IeC {\cyrch }\IeC {\cyre }\IeC {\cyrs }\IeC {\cyrk }\IeC {\cyro }\IeC {\cyrg }\IeC {\cyro } \IeC {\cyrs }\IeC {\cyrp }\IeC {\cyrr }\IeC {\cyra }\IeC {\cyrv }\IeC {\cyro }\IeC {\cyrch }\IeC {\cyrn }\IeC {\cyri }\IeC {\cyrk }\IeC {\cyra }}{7}
\defcounter {refsection}{0}\relax 
\contentsline {subsection}{\numberline {1.1.\relax }\IeC {\CYRS }\IeC {\cyrp }\IeC {\cyrr }\IeC {\cyra }\IeC {\cyrv }\IeC {\cyro }\IeC {\cyrch }\IeC {\cyrn }\IeC {\cyri }\IeC {\cyrk } \IeC {\guillemotleft }\IeC {\CYRK }\IeC {\CYRL }\IeC {\CYRI }\IeC {\CYRM }\IeC {\CYRA }\IeC {\CYRT }-\IeC {\CYRR }\IeC {\CYRO }\IeC {\CYRS }\IeC {\CYRS }\IeC {\CYRI }\IeC {\CYRI }\IeC {\guillemotright }}{7}
\defcounter {refsection}{0}\relax 
\contentsline {subsection}{\numberline {1.2.\relax }\IeC {\CYRS }\IeC {\cyrt }\IeC {\cyrr }\IeC {\cyru }\IeC {\cyrk }\IeC {\cyrt }\IeC {\cyru }\IeC {\cyrr }\IeC {\cyrery } \IeC {\cyrd }\IeC {\cyra }\IeC {\cyrn }\IeC {\cyrn }\IeC {\cyrery }\IeC {\cyrh } \IeC {\cyrk }\IeC {\cyrl }\IeC {\cyri }\IeC {\cyrm }\IeC {\cyra }\IeC {\cyrt }\IeC {\cyri }\IeC {\cyrch }\IeC {\cyre }\IeC {\cyrs }\IeC {\cyrk }\IeC {\cyro }\IeC {\cyrg }\IeC {\cyro } \IeC {\cyrs }\IeC {\cyrp }\IeC {\cyrr }\IeC {\cyra }\IeC {\cyrv }\IeC {\cyro }\IeC {\cyrch }\IeC {\cyrn }\IeC {\cyri }\IeC {\cyrk }\IeC {\cyra }}{12}
\defcounter {refsection}{0}\relax 
\contentsline {section}{\numberline {2.\relax }\IeC {\CYRR }\IeC {\cyra }\IeC {\cyrz }\IeC {\cyrr }\IeC {\cyra }\IeC {\cyrb }\IeC {\cyro }\IeC {\cyrt }\IeC {\cyrk }\IeC {\cyra } \IeC {\cyrm }\IeC {\cyro }\IeC {\cyrd }\IeC {\cyru }\IeC {\cyrl }\IeC {\cyrya } \IeC {\cyrz }\IeC {\cyra }\IeC {\cyrg }\IeC {\cyrr }\IeC {\cyru }\IeC {\cyrz }\IeC {\cyrk }\IeC {\cyri } \IeC {\cyrd }\IeC {\cyra }\IeC {\cyrn }\IeC {\cyrn }\IeC {\cyrery }\IeC {\cyrh }}{13}
\defcounter {refsection}{0}\relax 
\contentsline {section}{\numberline {3.\relax }\IeC {\CYRS }\IeC {\cyro }\IeC {\cyrz }\IeC {\cyrd }\IeC {\cyra }\IeC {\cyrn }\IeC {\cyri }\IeC {\cyre } \IeC {\cyrm }\IeC {\cyro }\IeC {\cyrd }\IeC {\cyru }\IeC {\cyrl }\IeC {\cyrya } \IeC {\cyrt }\IeC {\cyra }\IeC {\cyrb }\IeC {\cyrl }\IeC {\cyri }\IeC {\cyrch }\IeC {\cyrn }\IeC {\cyro }\IeC {\cyrg }\IeC {\cyro } \IeC {\cyrp }\IeC {\cyrr }\IeC {\cyre }\IeC {\cyrd }\IeC {\cyrs }\IeC {\cyrt }\IeC {\cyra }\IeC {\cyrv }\IeC {\cyrl }\IeC {\cyre }\IeC {\cyrn }\IeC {\cyri }\IeC {\cyrya } \IeC {\cyrd }\IeC {\cyra }\IeC {\cyrn }\IeC {\cyrn }\IeC {\cyrery }\IeC {\cyrh }}{15}
\defcounter {refsection}{0}\relax 
\contentsline {subsection}{\numberline {3.1.\relax }\IeC {\CYRN }\IeC {\cyra }\IeC {\cyrz }\IeC {\cyrv }\IeC {\cyra }\IeC {\cyrn }\IeC {\cyri }\IeC {\cyre } \IeC {\cyrp }\IeC {\cyro }\IeC {\cyrd }\IeC {\cyrr }\IeC {\cyra }\IeC {\cyrz }\IeC {\cyrd }\IeC {\cyre }\IeC {\cyrl }\IeC {\cyra }}{15}
\defcounter {refsection}{0}\relax 
\contentsline {section}{\numberline {4.\relax }\IeC {\CYRR }\IeC {\cyra }\IeC {\cyrz }\IeC {\cyrr }\IeC {\cyra }\IeC {\cyrb }\IeC {\cyro }\IeC {\cyrt }\IeC {\cyrk }\IeC {\cyra } \IeC {\cyrm }\IeC {\cyro }\IeC {\cyrd }\IeC {\cyru }\IeC {\cyrl }\IeC {\cyrya } \IeC {\cyrg }\IeC {\cyrr }\IeC {\cyra }\IeC {\cyrf }\IeC {\cyri }\IeC {\cyrch }\IeC {\cyre }\IeC {\cyrs }\IeC {\cyrk }\IeC {\cyro }\IeC {\cyrg }\IeC {\cyro } \IeC {\cyro }\IeC {\cyrt }\IeC {\cyro }\IeC {\cyrb }\IeC {\cyrr }\IeC {\cyra }\IeC {\cyrzh }\IeC {\cyre }\IeC {\cyrn }\IeC {\cyri }\IeC {\cyrya }}{15}
\defcounter {refsection}{0}\relax 
\contentsline {section}{\numberline {5.\relax }\IeC {\CYRP }\IeC {\cyrr }\IeC {\cyro }\IeC {\cyre }\IeC {\cyrk }\IeC {\cyrt }\IeC {\cyri }\IeC {\cyrr }\IeC {\cyro }\IeC {\cyrv }\IeC {\cyra }\IeC {\cyrn }\IeC {\cyri }\IeC {\cyre } \IeC {\cyra }\IeC {\cyrr }\IeC {\cyrh }\IeC {\cyri }\IeC {\cyrt }\IeC {\cyre }\IeC {\cyrk }\IeC {\cyrt }\IeC {\cyru }\IeC {\cyrr }\IeC {\cyrery } web-\IeC {\cyrp }\IeC {\cyrr }\IeC {\cyri }\IeC {\cyrl }\IeC {\cyro }\IeC {\cyrzh }\IeC {\cyre }\IeC {\cyrn }\IeC {\cyri }\IeC {\cyrya }}{15}
\defcounter {refsection}{0}\relax 
\contentsline {section}{\IeC {\CYRZ }\IeC {\CYRA }\IeC {\CYRK }\IeC {\CYRL }\IeC {\CYRYU }\IeC {\CYRCH }\IeC {\CYRE }\IeC {\CYRN }\IeC {\CYRI }\IeC {\CYRE }}{16}
\defcounter {refsection}{0}\relax 
\contentsline {section}{\IeC {\CYRS }\IeC {\CYRP }\IeC {\CYRI }\IeC {\CYRS }\IeC {\CYRO }\IeC {\CYRK } \IeC {\CYRI }\IeC {\CYRS }\IeC {\CYRP }\IeC {\CYRO }\IeC {\CYRL }\IeC {\CYRSFTSN }\IeC {\CYRZ }\IeC {\CYRO }\IeC {\CYRV }\IeC {\CYRA }\IeC {\CYRN }\IeC {\CYRN }\IeC {\CYRO }\IeC {\CYRISHRT } \IeC {\CYRL }\IeC {\CYRI }\IeC {\CYRT }\IeC {\CYRE }\IeC {\CYRR }\IeC {\CYRA }\IeC {\CYRT }\IeC {\CYRU }\IeC {\CYRR }\IeC {\CYRERY }}{17}
\defcounter {refsection}{0}\relax 
\contentsline {section}{\IeC {\CYRP }\IeC {\cyrr }\IeC {\cyri }\IeC {\cyrl }\IeC {\cyro }\IeC {\cyrzh }\IeC {\cyre }\IeC {\cyrn }\IeC {\cyri }\IeC {\cyre }}{18}
