\relax 
\abx@aux@sortscheme{none}
\abx@aux@refcontext{none/global/}
\catcode `"\active 
\@writefile{toc}{\boolfalse {citerequest}\boolfalse {citetracker}\boolfalse {pagetracker}\boolfalse {backtracker}\relax }
\@writefile{lof}{\boolfalse {citerequest}\boolfalse {citetracker}\boolfalse {pagetracker}\boolfalse {backtracker}\relax }
\@writefile{lot}{\boolfalse {citerequest}\boolfalse {citetracker}\boolfalse {pagetracker}\boolfalse {backtracker}\relax }
\select@language{russian}
\@writefile{toc}{\defcounter {refsection}{0}\relax }\@writefile{toc}{\select@language{russian}}
\@writefile{lof}{\defcounter {refsection}{0}\relax }\@writefile{lof}{\select@language{russian}}
\@writefile{lot}{\defcounter {refsection}{0}\relax }\@writefile{lot}{\select@language{russian}}
\@writefile{toc}{\defcounter {refsection}{0}\relax }\@writefile{toc}{\contentsline {section}{\IeC {\CYRV }\IeC {\CYRV }\IeC {\CYRE }\IeC {\CYRD }\IeC {\CYRE }\IeC {\CYRN }\IeC {\CYRI }\IeC {\CYRE }}{5}}
\@writefile{toc}{\defcounter {refsection}{0}\relax }\@writefile{toc}{\contentsline {section}{\numberline {1.\relax }\IeC {\CYRI }\IeC {\cyrz }\IeC {\cyru }\IeC {\cyrch }\IeC {\cyre }\IeC {\cyrn }\IeC {\cyri }\IeC {\cyre } \IeC {\cyrs }\IeC {\cyrt }\IeC {\cyrr }\IeC {\cyru }\IeC {\cyrk }\IeC {\cyrt }\IeC {\cyru }\IeC {\cyrr }\IeC {\cyrery } \IeC {\cyrd }\IeC {\cyra }\IeC {\cyrn }\IeC {\cyrn }\IeC {\cyrery }\IeC {\cyrh } \IeC {\cyrk }\IeC {\cyrl }\IeC {\cyri }\IeC {\cyrm }\IeC {\cyra }\IeC {\cyrt }\IeC {\cyri }\IeC {\cyrch }\IeC {\cyre }\IeC {\cyrs }\IeC {\cyrk }\IeC {\cyro }\IeC {\cyrg }\IeC {\cyro } \IeC {\cyrs }\IeC {\cyrp }\IeC {\cyrr }\IeC {\cyra }\IeC {\cyrv }\IeC {\cyro }\IeC {\cyrch }\IeC {\cyrn }\IeC {\cyri }\IeC {\cyrk }\IeC {\cyra }}{7}}
\@writefile{toc}{\defcounter {refsection}{0}\relax }\@writefile{toc}{\contentsline {subsection}{\numberline {1.1.\relax }\IeC {\CYRS }\IeC {\cyrp }\IeC {\cyrr }\IeC {\cyra }\IeC {\cyrv }\IeC {\cyro }\IeC {\cyrch }\IeC {\cyrn }\IeC {\cyri }\IeC {\cyrk } \IeC {\guillemotleft }\IeC {\CYRK }\IeC {\CYRL }\IeC {\CYRI }\IeC {\CYRM }\IeC {\CYRA }\IeC {\CYRT }-\IeC {\CYRR }\IeC {\CYRO }\IeC {\CYRS }\IeC {\CYRS }\IeC {\CYRI }\IeC {\CYRI }\IeC {\guillemotright }}{7}}
\@writefile{lof}{\defcounter {refsection}{0}\relax }\@writefile{lof}{\contentsline {figure}{\numberline {1.}{\ignorespaces \IeC {\CYRK }\IeC {\cyrl }\IeC {\cyri }\IeC {\cyrm }\IeC {\cyra }\IeC {\cyrt }\IeC {\cyri }\IeC {\cyrch }\IeC {\cyre }\IeC {\cyrs }\IeC {\cyrk }\IeC {\cyri }\IeC {\cyrishrt } \IeC {\cyrs }\IeC {\cyrp }\IeC {\cyrr }\IeC {\cyra }\IeC {\cyrv }\IeC {\cyro }\IeC {\cyrch }\IeC {\cyrn }\IeC {\cyri }\IeC {\cyrk } \IeC {\CYRK }\IeC {\cyrl }\IeC {\cyri }\IeC {\cyrm }\IeC {\cyra }\IeC {\cyrt } \IeC {\CYRR }\IeC {\cyro }\IeC {\cyrs }\IeC {\cyrs }\IeC {\cyri }\IeC {\cyri }}}{8}}
\newlabel{fig:1}{{1}{8}}
\@writefile{lof}{\defcounter {refsection}{0}\relax }\@writefile{lof}{\contentsline {figure}{\numberline {2.}{\ignorespaces \IeC {\CYRS }\IeC {\cyro }\IeC {\cyrd }\IeC {\cyre }\IeC {\cyrr }\IeC {\cyrzh }\IeC {\cyra }\IeC {\cyrn }\IeC {\cyri }\IeC {\cyre } \IeC {\cyrk }\IeC {\cyrl }\IeC {\cyri }\IeC {\cyrm }\IeC {\cyra }\IeC {\cyrt }\IeC {\cyri }\IeC {\cyrch }\IeC {\cyre }\IeC {\cyrs }\IeC {\cyrk }\IeC {\cyro }\IeC {\cyrg }\IeC {\cyro } \IeC {\cyrs }\IeC {\cyrp }\IeC {\cyrr }\IeC {\cyra }\IeC {\cyrv }\IeC {\cyro }\IeC {\cyrch }\IeC {\cyrn }\IeC {\cyri }\IeC {\cyrk }\IeC {\cyra }}}{9}}
\newlabel{fig:2}{{2}{9}}
\@writefile{lof}{\defcounter {refsection}{0}\relax }\@writefile{lof}{\contentsline {figure}{\numberline {3.}{\ignorespaces \IeC {\CYRF }\IeC {\cyro }\IeC {\cyrr }\IeC {\cyrm }\IeC {\cyra } \IeC {\cyrv }\IeC {\cyrh }\IeC {\cyro }\IeC {\cyrd }\IeC {\cyra } \IeC {\cyri }\IeC {\cyrl }\IeC {\cyri } \IeC {\cyrr }\IeC {\cyre }\IeC {\cyrg }\IeC {\cyri }\IeC {\cyrs }\IeC {\cyrt }\IeC {\cyrr }\IeC {\cyra }\IeC {\cyrc }\IeC {\cyri }\IeC {\cyri }}}{10}}
\newlabel{fig:3}{{3}{10}}
\@writefile{lof}{\defcounter {refsection}{0}\relax }\@writefile{lof}{\contentsline {figure}{\numberline {4.}{\ignorespaces \IeC {\CYRV }\IeC {\cyrery }\IeC {\cyrb }\IeC {\cyro }\IeC {\cyrr } \IeC {\cyrm }\IeC {\cyre }\IeC {\cyrt }\IeC {\cyre }\IeC {\cyro }\IeC {\cyrr }\IeC {\cyro }\IeC {\cyrl }\IeC {\cyro }\IeC {\cyrg }\IeC {\cyri }\IeC {\cyrch }\IeC {\cyre }\IeC {\cyrs }\IeC {\cyrk }\IeC {\cyri }\IeC {\cyrh } \IeC {\cyrs }\IeC {\cyrt }\IeC {\cyra }\IeC {\cyrn }\IeC {\cyrc }\IeC {\cyri }\IeC {\cyrishrt }}}{11}}
\newlabel{fig:4}{{4}{11}}
\@writefile{lof}{\defcounter {refsection}{0}\relax }\@writefile{lof}{\contentsline {figure}{\numberline {5.}{\ignorespaces \IeC {\CYRV }\IeC {\cyrery }\IeC {\cyrv }\IeC {\cyro }\IeC {\cyrd } \IeC {\cyrd }\IeC {\cyra }\IeC {\cyrn }\IeC {\cyrn }\IeC {\cyrery }\IeC {\cyrh } \IeC {\cyri }\IeC {\cyrz } \IeC {\cyrk }\IeC {\cyrl }\IeC {\cyri }\IeC {\cyrm }\IeC {\cyra }\IeC {\cyrt }\IeC {\cyri }\IeC {\cyrch }\IeC {\cyre }\IeC {\cyrs }\IeC {\cyrk }\IeC {\cyro }\IeC {\cyrg }\IeC {\cyro } \IeC {\cyrs }\IeC {\cyrp }\IeC {\cyrr }\IeC {\cyra }\IeC {\cyrv }\IeC {\cyro }\IeC {\cyrch }\IeC {\cyrn }\IeC {\cyri }\IeC {\cyrk }\IeC {\cyra }}}{11}}
\newlabel{fig:5}{{5}{11}}
\@writefile{toc}{\defcounter {refsection}{0}\relax }\@writefile{toc}{\contentsline {subsection}{\numberline {1.2.\relax }\IeC {\CYRS }\IeC {\cyrt }\IeC {\cyrr }\IeC {\cyru }\IeC {\cyrk }\IeC {\cyrt }\IeC {\cyru }\IeC {\cyrr }\IeC {\cyrery } \IeC {\cyrd }\IeC {\cyra }\IeC {\cyrn }\IeC {\cyrn }\IeC {\cyrery }\IeC {\cyrh } \IeC {\cyrk }\IeC {\cyrl }\IeC {\cyri }\IeC {\cyrm }\IeC {\cyra }\IeC {\cyrt }\IeC {\cyri }\IeC {\cyrch }\IeC {\cyre }\IeC {\cyrs }\IeC {\cyrk }\IeC {\cyro }\IeC {\cyrg }\IeC {\cyro } \IeC {\cyrs }\IeC {\cyrp }\IeC {\cyrr }\IeC {\cyra }\IeC {\cyrv }\IeC {\cyro }\IeC {\cyrch }\IeC {\cyrn }\IeC {\cyri }\IeC {\cyrk }\IeC {\cyra }}{12}}
\@writefile{lof}{\defcounter {refsection}{0}\relax }\@writefile{lof}{\contentsline {figure}{\numberline {6.}{\ignorespaces \IeC {\CYRV }\IeC {\cyrery }\IeC {\cyrv }\IeC {\cyro }\IeC {\cyrd } \IeC {\cyrd }\IeC {\cyra }\IeC {\cyrn }\IeC {\cyrn }\IeC {\cyrery }\IeC {\cyrh } \IeC {\cyri }\IeC {\cyrz } \IeC {\cyrk }\IeC {\cyrl }\IeC {\cyri }\IeC {\cyrm }\IeC {\cyra }\IeC {\cyrt }\IeC {\cyri }\IeC {\cyrch }\IeC {\cyre }\IeC {\cyrs }\IeC {\cyrk }\IeC {\cyro }\IeC {\cyrg }\IeC {\cyro } \IeC {\cyrs }\IeC {\cyrp }\IeC {\cyrr }\IeC {\cyra }\IeC {\cyrv }\IeC {\cyro }\IeC {\cyrch }\IeC {\cyrn }\IeC {\cyri }\IeC {\cyrk }\IeC {\cyra }}}{12}}
\newlabel{fig:6}{{6}{12}}
\@writefile{toc}{\defcounter {refsection}{0}\relax }\@writefile{toc}{\contentsline {section}{\numberline {2.\relax }\IeC {\CYRR }\IeC {\cyra }\IeC {\cyrz }\IeC {\cyrr }\IeC {\cyra }\IeC {\cyrb }\IeC {\cyro }\IeC {\cyrt }\IeC {\cyrk }\IeC {\cyra } \IeC {\cyrm }\IeC {\cyro }\IeC {\cyrd }\IeC {\cyru }\IeC {\cyrl }\IeC {\cyrya } \IeC {\cyrz }\IeC {\cyra }\IeC {\cyrg }\IeC {\cyrr }\IeC {\cyru }\IeC {\cyrz }\IeC {\cyrk }\IeC {\cyri } \IeC {\cyrd }\IeC {\cyra }\IeC {\cyrn }\IeC {\cyrn }\IeC {\cyrery }\IeC {\cyrh }}{13}}
\@writefile{toc}{\defcounter {refsection}{0}\relax }\@writefile{toc}{\contentsline {section}{\numberline {3.\relax }\IeC {\CYRS }\IeC {\cyro }\IeC {\cyrz }\IeC {\cyrd }\IeC {\cyra }\IeC {\cyrn }\IeC {\cyri }\IeC {\cyre } \IeC {\cyrm }\IeC {\cyro }\IeC {\cyrd }\IeC {\cyru }\IeC {\cyrl }\IeC {\cyrya } \IeC {\cyrt }\IeC {\cyra }\IeC {\cyrb }\IeC {\cyrl }\IeC {\cyri }\IeC {\cyrch }\IeC {\cyrn }\IeC {\cyro }\IeC {\cyrg }\IeC {\cyro } \IeC {\cyrp }\IeC {\cyrr }\IeC {\cyre }\IeC {\cyrd }\IeC {\cyrs }\IeC {\cyrt }\IeC {\cyra }\IeC {\cyrv }\IeC {\cyrl }\IeC {\cyre }\IeC {\cyrn }\IeC {\cyri }\IeC {\cyrya } \IeC {\cyrd }\IeC {\cyra }\IeC {\cyrn }\IeC {\cyrn }\IeC {\cyrery }\IeC {\cyrh }}{15}}
\@writefile{toc}{\defcounter {refsection}{0}\relax }\@writefile{toc}{\contentsline {subsection}{\numberline {3.1.\relax }\IeC {\CYRN }\IeC {\cyra }\IeC {\cyrz }\IeC {\cyrv }\IeC {\cyra }\IeC {\cyrn }\IeC {\cyri }\IeC {\cyre } \IeC {\cyrp }\IeC {\cyro }\IeC {\cyrd }\IeC {\cyrr }\IeC {\cyra }\IeC {\cyrz }\IeC {\cyrd }\IeC {\cyre }\IeC {\cyrl }\IeC {\cyra }}{15}}
\@writefile{toc}{\defcounter {refsection}{0}\relax }\@writefile{toc}{\contentsline {section}{\numberline {4.\relax }\IeC {\CYRR }\IeC {\cyra }\IeC {\cyrz }\IeC {\cyrr }\IeC {\cyra }\IeC {\cyrb }\IeC {\cyro }\IeC {\cyrt }\IeC {\cyrk }\IeC {\cyra } \IeC {\cyrm }\IeC {\cyro }\IeC {\cyrd }\IeC {\cyru }\IeC {\cyrl }\IeC {\cyrya } \IeC {\cyrg }\IeC {\cyrr }\IeC {\cyra }\IeC {\cyrf }\IeC {\cyri }\IeC {\cyrch }\IeC {\cyre }\IeC {\cyrs }\IeC {\cyrk }\IeC {\cyro }\IeC {\cyrg }\IeC {\cyro } \IeC {\cyro }\IeC {\cyrt }\IeC {\cyro }\IeC {\cyrb }\IeC {\cyrr }\IeC {\cyra }\IeC {\cyrzh }\IeC {\cyre }\IeC {\cyrn }\IeC {\cyri }\IeC {\cyrya }}{15}}
\@writefile{toc}{\defcounter {refsection}{0}\relax }\@writefile{toc}{\contentsline {section}{\numberline {5.\relax }\IeC {\CYRP }\IeC {\cyrr }\IeC {\cyro }\IeC {\cyre }\IeC {\cyrk }\IeC {\cyrt }\IeC {\cyri }\IeC {\cyrr }\IeC {\cyro }\IeC {\cyrv }\IeC {\cyra }\IeC {\cyrn }\IeC {\cyri }\IeC {\cyre } \IeC {\cyra }\IeC {\cyrr }\IeC {\cyrh }\IeC {\cyri }\IeC {\cyrt }\IeC {\cyre }\IeC {\cyrk }\IeC {\cyrt }\IeC {\cyru }\IeC {\cyrr }\IeC {\cyrery } web-\IeC {\cyrp }\IeC {\cyrr }\IeC {\cyri }\IeC {\cyrl }\IeC {\cyro }\IeC {\cyrzh }\IeC {\cyre }\IeC {\cyrn }\IeC {\cyri }\IeC {\cyrya }}{15}}
\@writefile{toc}{\defcounter {refsection}{0}\relax }\@writefile{toc}{\contentsline {section}{\IeC {\CYRZ }\IeC {\CYRA }\IeC {\CYRK }\IeC {\CYRL }\IeC {\CYRYU }\IeC {\CYRCH }\IeC {\CYRE }\IeC {\CYRN }\IeC {\CYRI }\IeC {\CYRE }}{16}}
\@writefile{toc}{\defcounter {refsection}{0}\relax }\@writefile{toc}{\contentsline {section}{\IeC {\CYRS }\IeC {\CYRP }\IeC {\CYRI }\IeC {\CYRS }\IeC {\CYRO }\IeC {\CYRK } \IeC {\CYRI }\IeC {\CYRS }\IeC {\CYRP }\IeC {\CYRO }\IeC {\CYRL }\IeC {\CYRSFTSN }\IeC {\CYRZ }\IeC {\CYRO }\IeC {\CYRV }\IeC {\CYRA }\IeC {\CYRN }\IeC {\CYRN }\IeC {\CYRO }\IeC {\CYRISHRT } \IeC {\CYRL }\IeC {\CYRI }\IeC {\CYRT }\IeC {\CYRE }\IeC {\CYRR }\IeC {\CYRA }\IeC {\CYRT }\IeC {\CYRU }\IeC {\CYRR }\IeC {\CYRERY }}{17}}
\abx@aux@refcontextdefaultsdone
\abx@aux@defaultrefcontext{0}{juneau2014advanced}{none/global/}
\abx@aux@defaultrefcontext{0}{jsf}{none/global/}
\abx@aux@defaultrefcontext{0}{ccalicskan2015primefaces}{none/global/}
\abx@aux@defaultrefcontext{0}{pr}{none/global/}
\abx@aux@defaultrefcontext{0}{prime}{none/global/}
\abx@aux@defaultrefcontext{0}{postgres}{none/global/}
\abx@aux@defaultrefcontext{0}{fly}{none/global/}
\abx@aux@defaultrefcontext{0}{project}{none/global/}
\expandafter\ifx\csname c@citnum@totc\endcsname\relax\newcounter{citnum@totc}\fi\setcounter{citnum@totc}{0}
\expandafter\ifx\csname c@page@totc\endcsname\relax\newcounter{page@totc}\fi\setcounter{page@totc}{18}
\expandafter\ifx\csname c@figure@totc\endcsname\relax\newcounter{figure@totc}\fi\setcounter{figure@totc}{6}
\expandafter\ifx\csname c@table@totc\endcsname\relax\newcounter{table@totc}\fi\setcounter{table@totc}{0}
\@writefile{toc}{\defcounter {refsection}{0}\relax }\@writefile{toc}{\contentsline {section}{\IeC {\CYRP }\IeC {\cyrr }\IeC {\cyri }\IeC {\cyrl }\IeC {\cyro }\IeC {\cyrzh }\IeC {\cyre }\IeC {\cyrn }\IeC {\cyri }\IeC {\cyre }}{18}}
